…
``` r
new_df <- df_var %>%
  dplyr::filter(res_name == "100km" & iteration <= 119 |
                  res_name == "50km" & iteration <= 128 |
                  res_name == "25km" & iteration <= 128 |
                  res_name == "10km" & iteration <= 144)

results <- new_df %>%
  group_by(res_name, gid) %>%
  summarise(avg_dif = mean(dif),
            se = plotrix::std.error(dif)) 
#> `summarise()` has grouped output by 'res_name'. You can override using the `.groups` argument.
results
#> # A tibble: 6,709 × 4
#> # Groups:   res_name [4]
#>    res_name   gid avg_dif    se
#>    <chr>    <dbl>   <dbl> <dbl>
#>  1 100km        1  11.7   0.237
#>  2 100km        2  11.7   0.237
#>  3 100km        3  27.6   0.162
#>  4 100km        4   7.36  0.202
#>  5 100km        5  26.1   0.166
#>  6 100km        6   1.71  0.112
#>  7 100km        7  21.5   0.219
#>  8 100km        8   1.48  0.123
#>  9 100km        9  22.6   0.193
#> 10 100km       10   0.933 0.183
#> # ℹ 6,699 more rows
```
…
``` r
new_iters_df <- merge(new_iters, df_var) %>%
  dplyr::filter(res_name == "100km" & new_iter <= 119 |
                  res_name == "50km" & new_iter <= 128 |
                  res_name == "25km" & new_iter <= 128 |
                  res_name == "10km" & new_iter <= 144)

new_results <- new_iters_df %>%
  group_by(res_name, gid) %>%
  summarise(avg_dif = mean(dif),
            se = plotrix::std.error(dif)) 
#> `summarise()` has grouped output by 'res_name'. You can override using the `.groups` argument.
new_results
#> # A tibble: 6,709 × 4
#> # Groups:   res_name [4]
#>    res_name   gid avg_dif     se
#>    <chr>    <dbl>   <dbl>  <dbl>
#>  1 100km        1 11.3    0.217 
#>  2 100km        2 11.4    0.219 
#>  3 100km        3 27.7    0.136 
#>  4 100km        4  6.13   0.190 
#>  5 100km        5 26.3    0.155 
#>  6 100km        6  0.429  0.0554
#>  7 100km        7 21.4    0.247 
#>  8 100km        8  0.0756 0.0747
#>  9 100km        9 22.5    0.217 
#> 10 100km       10 -0.454  0.168 
#> # ℹ 6,699 more rows
…
